{
    "$schema": "http://schema.management.azure.com/schemas/2015-01-01/deploymentTemplate.json#",
    "contentVersion": "1.0.0.0",
    "parameters": {},
    "variables": {},
    "resources": [
        {
            "name": "[concat('storage', uniqueString(resourceGroup().id))]",
            "type": "Microsoft.Storage/storageAccounts",
            "apiVersion": "2016-01-01",
            "sku": {
                "name": "Standard_LRS"
            },
            "kind": "Storage",
            "location": "Central US",
            "tags": {},
            "properties": {}
        }
    ],
    "outputs": {}
}